Vzorek ID,Jméno aplikace:,Platform ID,Platforma:,Sekce A
1,Adiquit: Přestaňte kouřit,1,Android ;,"3,2"
2,aktiBMI,1,Android ;,"2,6"
3,BENU aplikace,1,Android ;,3
4,Brainbuddy: Quit Porn Forever,1,Android ;,"3,2"
5,Deník hráče,1,Android ;,"2,2"
6,Dexcom Clarity,1,Android ;,"2,4"
7,DWA: Počitadlo střízlivosti,1,Android ;,"2,6"
8,DWS: počítadlo bez kouře,1,Android ;,"2,2"
9,eRecept,1,Android ;,"2,4"
10,Family link,1,Android ;,"3,6"
11,Google Fit,1,Android ;,"3,4"
12,I Am Sober,1,Android ;,"3,6"
13,iTrip,1,Android ;,"3,4"
15,Kwit - Přestat kouřit,1,Android ;,3
16,Lékárna.cz,1,Android ;,"3,2"
17,Medevio,1,Android ;,"3,8"
18,Medfox-připomínky léků včas,1,Android ;,"3,4"
19,Mediately Databáze léčiv,1,Android ;,"3,6"
20,Menstruační kalendář,1,Android ;,"2,4"
21,Microsoft Family Safety,1,Android ;,"3,4"
22,"Miminko+, sledování děťátka",1,Android ;,4
23,moje EUC: klinika i léky online,1,Android ;,"2,8"
24,mojeVZP,1,Android ;,"2,6"
25,mySugr - Deník sledování diabetu,1,Android ;,"3,2"
26,Nepanikař,1,Android ;,4
27,OnlineAmbulance,1,Android ;,"2,8"
28,PillBox: Moje pilulka,1,Android ;,"3,4"
29,Pilulka,1,Android ;,3
30,Plasma Place,1,Android ;,"3,2"
31,Preventivka,1,Android ;,4
32,První psychická pomoc,1,Android ;,"2,4"
33,Přestat kouřit,1,Android ;,3
34,Připomenutí léků MyTherapy,1,Android ;,3
35,QuitNow: Přestaňte kouřit,1,Android ;,"3,4"
36,Quitzilla: Skončit se Zlozvyky,1,Android ;,3
37,Reboot: Quit porn addiction,1,Android ;,3
38,Smoxy - Přestat kouřit,1,Android ;,"3,6"
39,Tečka,1,Android ;,"2,8"
40,Těhotenství +,1,Android ;,"3,2"
41,Těhotenství týden po týdnu,1,Android ;,"3,8"
42,Victory By Covenant Eyes,1,Android ;,"3,4"
43,VOS health,1,Android ;,"3,8"
44,Záchranka,1,Android ;,"3,6"
45,Zdraví v mobilu,1,Android ;,"2,8"
46,ZnamyLekar-Najděte si lékaře,1,Android ;,"3,8"
1,Adiquit: Přestaňte kouřit,2,iPhone ;,"4,4"
2,aktiBMI,2,iPhone ;,"4,4"
3,BENU aplikace,2,iPhone ;,3
4,Brainbuddy: Quit Porn Forever,2,iPhone ;,"2,8"
5,Deník hráče,2,iPhone ;,"2,4"
6,Dexcom Clarity,2,iPhone ;,"3,4"
7,DWA: Počitadlo střízlivosti,2,iPhone ;,2
8,DWS: Počítadlo bez kouře,2,iPhone ;,"2,6"
9,eRecept,2,iPhone ;,"3,2"
10,Family link,2,iPhone ;,"3,8"
11,Google Fit,2,iPhone ;,3
12,I Am Sober,2,iPhone ;,"3,6"
13,iTrip,2,iPhone ;,"3,4"
14,Kalorické tabulky,2,iPhone ;,"3,6"
14,Kalorické tabulky,2,iPhone ;,"3,8"
15,Kwit - Přestat kouřit,2,iPhone ;,"3,2"
16,Lékárna.cz,2,iPhone ;,"3,2"
17,Medevio,2,iPhone ;,"3,4"
18,Medfox-připomínky léků včas,2,iPhone ;,4
19,Mediately Databáze léčiv,2,iPhone ;,"3,4"
20,Menstruační kalendář,2,iPhone ;,"2,4"
21,Microsoft Family Safety,2,iPhone ;,"3,2"
22,"Miminko+, sledování děťátka",2,iPhone ;,"3,6"
23,moje EUC: klinika i léky online,2,iPhone ;,"3,2"
24,Moje VZP,2,iPhone ;,"3,2"
25,mySugr - Deník sledování diabetu,2,iPhone ;,"3,6"
26,Nepanikař,2,iPhone ;,"3,2"
27,OnlineAmbulance,2,iPhone ;,"3,6"
28,PillBox: Moje pilulka,2,iPhone ;,"3,8"
29,Pilulka,2,iPhone ;,"3,4"
30,Plasma Place,2,iPhone ;,"2,8"
31,Preventivka,2,iPhone ;,"3,6"
32,První psychická pomoc,2,iPhone ;,"2,2"
33,Přestat kouřit,2,iPhone ;,"2,8"
34,Připomenutí léků MyTherapy,2,iPhone ;,"3,2"
35,QuitNow: Přestaňte kouřit,2,iPhone ;,"3,6"
36,QuitZilla: Skončit se zlozvyky,2,iPhone ;,"3,8"
37,Reboot: Quit porn addiction,2,iPhone ;,3
38,Smoxy - Přestat kouřit,2,iPhone ;,"3,6"
39,Tečka,2,iPhone ;,"2,6"
40,Těhotenství +,2,iPhone ;,"3,6"
41,Těhotenství týden po týdnu,2,iPhone ;,"3,8"
42,Victory By Covenant Eyes,2,iPhone ;,"3,6"
43,VOS health,2,iPhone ;,5
44,Záchranka,2,iPhone ;,"4,8"
45,Zdraví v mobilu,2,iPhone ;,"3,6"
46,ZnamyLekar-Najděte si lékaře,2,iPhone ;,"3,2"